Chapter 6 Summarizing Models | Idiographic prediction of loneliness and procrastination
…
sum_res <- tibble(
  model = c("01-glmnet", "02-biscwit", "03-rf")
) %>%
  mutate(file = map(model, ~sprintf("%s/05-results/%s/06-final-model-performance", res_path, .) %>%
                      list.files())) %>%
  unnest(file) %>%
  mutate(data = map2(file, model, ~loadRData(.x, "final_metrics", .y))) %>%
  separate(file, c("SID", "outcome", "group", "set", "time"), sep = "_") %>%
  mutate(time = str_remove_all(time, ".RData")
         , model = str_remove_all(model, "[0-9 -]")); sum_res

## # A tibble: 5,485 x 7
##    model  SID   outcome group         set    time    data                
##    <chr>  <chr> <chr>   <chr>         <chr>  <chr>   <list>              
##  1 glmnet 01    prcrst  full          all    no time <tibble[,4] [2 × 4]>
##  2 glmnet 01    prcrst  psychological Affect no time <tibble[,4] [2 × 4]>
##  3 glmnet 01    prcrst  psychological all    no time <tibble[,4] [2 × 4]>
##  4 glmnet 01    prcrst  psychological BFI-2  no time <tibble[,4] [2 × 4]>
##  5 glmnet 01    prcrst  situations    all    no time <tibble[,4] [2 × 4]>
##  6 glmnet 01    prcrst  situations    S8-I   no time <tibble[,4] [2 × 4]>
##  7 glmnet 01    prcrst  situations    sit    no time <tibble[,4] [2 × 4]>
##  8 glmnet 02    prcrst  full          all    no time <tibble[,4] [2 × 4]>
##  9 glmnet 02    prcrst  full          all    time    <tibble[,4] [2 × 4]>
## 10 glmnet 02    prcrst  psychological Affect no time <tibble[,4] [2 × 4]>
## # … with 5,475 more rows

Which looks something like this:

sum_res %>%
  unnest(data)

## # A tibble: 10,970 x 10
##    model  SID   outcome group         set    time    .metric  .estimator .estimate .config             
##    <chr>  <chr> <chr>   <chr>         <chr>  <chr>   <chr>    <chr>          <dbl> <chr>               
##  1 glmnet 01    prcrst  full          all    no time accuracy binary         0.909 Preprocessor1_Model1
##  2 glmnet 01    prcrst  full          all    no time roc_auc  binary         0.4   Preprocessor1_Model1
##  3 glmnet 01    prcrst  psychological Affect no time accuracy binary         0.909 Preprocessor1_Model1
##  4 glmnet 01    prcrst  psychological Affect no time roc_auc  binary         0.8   Preprocessor1_Model1
##  5 glmnet 01    prcrst  psychological all    no time accuracy binary         0.909 Preprocessor1_Model1
##  6 glmnet 01    prcrst  psychological all    no time roc_auc  binary         0.4   Preprocessor1_Model1
##  7 glmnet 01    prcrst  psychological BFI-2  no time accuracy binary         0.917 Preprocessor1_Model1
##  8 glmnet 01    prcrst  psychological BFI-2  no time roc_auc  binary         0.5   Preprocessor1_Model1
##  9 glmnet 01    prcrst  situations    all    no time accuracy binary         0.818 Preprocessor1_Model1
## 10 glmnet 01    prcrst  situations    all    no time roc_auc  binary         0.7   Preprocessor1_Model1
## # … with 10,960 more rows
…
sum_res_tab <- sum_res %>%
  unnest(data) %>%
  select(-.estimator, -.config) %>%
  pivot_wider(names_from = c("model", ".metric")
              , values_from = ".estimate") %>%
  group_by(outcome, group, set, time) %>%
  nest() %>%
  ungroup() %>%
  mutate(tab = pmap(list(data, outcome, group, set, time), perf_tab_fun))
sum_res_tab

## # A tibble: 28 x 6
##    outcome group         set    time    data                  tab           
##    <chr>   <chr>         <chr>  <chr>   <list>                <list>        
##  1 prcrst  full          all    no time <tibble[,7] [83 × 7]> <kablExtr [1]>
##  2 prcrst  psychological Affect no time <tibble[,7] [89 × 7]> <kablExtr [1]>
##  3 prcrst  psychological all    no time <tibble[,7] [89 × 7]> <kablExtr [1]>
##  4 prcrst  psychological BFI-2  no time <tibble[,7] [98 × 7]> <kablExtr [1]>
##  5 prcrst  situations    all    no time <tibble[,7] [83 × 7]> <kablExtr [1]>
##  6 prcrst  situations    S8-I   no time <tibble[,7] [83 × 7]> <kablExtr [1]>
##  7 prcrst  situations    sit    no time <tibble[,7] [98 × 7]> <kablExtr [1]>
##  8 prcrst  full          all    time    <tibble[,7] [75 × 7]> <kablExtr [1]>
##  9 prcrst  psychological Affect time    <tibble[,7] [81 × 7]> <kablExtr [1]>
## 10 prcrst  psychological all    time    <tibble[,7] [81 × 7]> <kablExtr [1]>
## # … with 18 more rows
…
6.1.3 Best Models

Next, to get a more concise indication of how these models are performing, we will choose the best model in terms of accuracy and AUC for each participant, outcome, and model combination.

best_mods <- sum_res %>% 
  unnest(data) %>%
  filter(set == "all") %>%
  group_by(SID, outcome, .metric, model) %>%
  filter(!is.na(.estimate) & .estimate != 1) %>%
  arrange(desc(.estimate), model, group) %>%
  slice_head(n = 1) %>%
  ungroup(); best_mods

## # A tibble: 817 x 10
##    model   SID   outcome group         set   time    .metric  .estimator .estimate .config             
##    <chr>   <chr> <chr>   <chr>         <chr> <chr>   <chr>    <chr>          <dbl> <chr>               
##  1 biscwit 01    prcrst  full          all   no time accuracy binary         0.909 <NA>                
##  2 glmnet  01    prcrst  full          all   no time accuracy binary         0.909 Preprocessor1_Model1
##  3 rf      01    prcrst  psychological all   no time accuracy binary         0.909 Preprocessor1_Model1
##  4 biscwit 01    prcrst  situations    all   no time roc_auc  binary         0.85  <NA>                
##  5 glmnet  01    prcrst  situations    all   no time roc_auc  binary         0.7   Preprocessor1_Model1
##  6 rf      01    prcrst  full          all   no time roc_auc  binary         0.556 Preprocessor1_Model1
##  7 biscwit 02    prcrst  full          all   time    accuracy binary         0.769 <NA>                
##  8 glmnet  02    prcrst  full          all   time    accuracy binary         0.846 Preprocessor1_Model1
##  9 rf      02    prcrst  full          all   no time accuracy binary         0.833 Preprocessor1_Model1
## 10 biscwit 02    prcrst  situations    all   no time roc_auc  binary         0.705 <NA>                
## # … with 807 more rows
…
  select(-params) %>% 
  unnest(coefs) %>%
  mutate(Variable = str_remove_all(Variable, "_X1"),
         Variable = str_remove_all(Variable, "_1"),
         Variable = str_remove_all(Variable, "_2"),
         Variable = str_replace_all(Variable, "[.]", "_"),
         group = sprintf("%s, %s", str_to_title(group), str_to_title(time))) %>%
  select(-set, -.metric, -time) %>%
  rename(accuracy = .estimate) %>%
  group_by(SID, outcome) %>%
  nest() %>%
  ungroup() %>%
  mutate(tab = pmap(list(data, SID, outcome), possibly(px_coef_tab_fun, NA_real_))); px_coef

## # A tibble: 140 x 4
##    SID   outcome data                   tab           
##    <chr> <chr>   <list>                 <list>        
##  1 01    prcrst  <tibble[,5] [149 × 5]> <kablExtr [1]>
##  2 02    prcrst  <tibble[,5] [225 × 5]> <kablExtr [1]>
##  3 05    prcrst  <tibble[,5] [143 × 5]> <kablExtr [1]>
##  4 08    lonely  <tibble[,5] [187 × 5]> <kablExtr [1]>
##  5 09    prcrst  <tibble[,5] [101 × 5]> <kablExtr [1]>
##  6 10    lonely  <tibble[,5] [94 × 5]>  <kablExtr [1]>
##  7 103   lonely  <tibble[,5] [141 × 5]> <kablExtr [1]>
##  8 103   prcrst  <tibble[,5] [166 × 5]> <kablExtr [1]>
##  9 105   lonely  <tibble[,5] [97 × 5]>  <kablExtr [1]>
## 10 105   prcrst  <tibble[,5] [185 × 5]> <kablExtr [1]>
## # … with 130 more rows
…
